Day, Part, Duration (ns), Allocs, Alloc. Bytes, Ops, Label
1, 1, 257899, 2008, 8032, 5000, Slice
1, 1, 789277, 6025, 128560, 2000, LinkedList
1, 2, 255666, 4016, 16064, 5000, Slice
1, 2, 7084185, 6025, 128560, 200, LinkedList